C:\Users\Mirko\workspaceMars\Hibernate\src\main\java\biz\webgate\education\beans\AppBean.java
C:\Users\Mirko\workspaceMars\Hibernate\src\main\java\HibernateStart.java
C:\Users\Mirko\workspaceMars\Hibernate\src\main\java\biz\webgate\education\db\HibernateUtil.java
C:\Users\Mirko\workspaceMars\Hibernate\src\main\java\biz\webgate\education\db\DBConnector.java
C:\Users\Mirko\workspaceMars\Hibernate\src\main\java\biz\webgate\education\business\Person.java
